…
ersim_new_exp_marg_med_qi <- sim_er_new_exp_marg(
  ermod_bin,
  exposure_to_sim_vec = seq(2, 6, by = 0.2),
  data_cov = dplyr::tibble(BHBA1C_5 = 4:10),
  n_subj_sim = NULL,
  n_draws_sim = 500, # This is set to make the example run faster
  output_type = "median_qi"
)

ersim_new_exp_marg_med_qi
#> # A tibble: 21 × 14
#>    .id_exposure AUCss_1000 .epred .epred.lower .epred.upper .linpred
#>           <int>      <dbl>  <dbl>        <dbl>        <dbl>    <dbl>
#>  1            1        2    0.176        0.147        0.208    -1.95
#>  2            2        2.2  0.186        0.159        0.218    -1.86
#>  3            3        2.4  0.198        0.170        0.229    -1.77
#>  4            4        2.6  0.210        0.183        0.244    -1.68
#>  5            5        2.8  0.222        0.194        0.258    -1.60
#>  6            6        3    0.235        0.206        0.274    -1.52
#>  7            7        3.2  0.248        0.216        0.289    -1.42
#>  8            8        3.4  0.262        0.227        0.304    -1.33
#>  9            9        3.6  0.277        0.237        0.321    -1.24
#> 10           10        3.8  0.292        0.247        0.340    -1.15
#> # ℹ 11 more rows
#> # ℹ 8 more variables: .linpred.lower <dbl>, .linpred.upper <dbl>,
#> #   .prediction <dbl>, .prediction.lower <dbl>, .prediction.upper <dbl>,
#> #   .width <dbl>, .point <chr>, .interval <chr>
…
