…
ersim_new_exp_med_qi <- sim_er_new_exp(
  ermod_bin,
  exposure_to_sim_vec = seq(2, 6, by = 0.2),
  data_cov = dplyr::tibble(BHBA1C_5 = 4:10),
  n_draws_sim = 500, # This is set to make the example run faster
  output_type = "median_qi"
)

ersim_new_exp_med_qi
#> # A tibble: 147 × 12
#>    AUCss_1000 BHBA1C_5  .row .epred .epred.lower .epred.upper .linpred
#>         <dbl>    <int> <int>  <dbl>        <dbl>        <dbl>    <dbl>
#>  1        2          4     1 0.0231       0.0107       0.0465   -3.74 
#>  2        2          5     2 0.0411       0.0226       0.0710   -3.15 
#>  3        2          6     3 0.0708       0.0457       0.107    -2.57 
#>  4        2          7     4 0.120        0.0891       0.157    -1.99 
#>  5        2          8     5 0.198        0.160        0.237    -1.40 
#>  6        2          9     6 0.305        0.255        0.363    -0.824
#>  7        2         10     7 0.440        0.358        0.526    -0.242
#>  8        2.2        4     8 0.0252       0.0118       0.0507   -3.66 
#>  9        2.2        5     9 0.0445       0.0247       0.0768   -3.07 
#> 10        2.2        6    10 0.0771       0.0498       0.117    -2.48 
#> # ℹ 137 more rows
#> # ℹ 5 more variables: .linpred.lower <dbl>, .linpred.upper <dbl>, .width <dbl>,
#> #   .point <chr>, .interval <chr>
…
