…
ersim <- sim_er(
  ermod_bin,
  n_draws_sim = 500, # This is set to make the example run faster
  output_type = "draws"
)

ersim_med_qi <- sim_er(
  ermod_bin,
  n_draws_sim = 500, # This is set to make the example run faster
  output_type = "median_qi"
)

ersim
#> # A tibble: 250,000 × 24
#> # Groups:   ID, AETYPE, AEFLAG, Dose_mg, AUCss, Cmaxss, Cminss, BAGE, BWT,
#> #   BGLUC, BHBA1C, RACE, VISC, AUCss_1000, BAGE_10, BWT_10, BHBA1C_5, .row
#> #   [500]
#>       ID AETYPE AEFLAG Dose_mg AUCss Cmaxss Cminss  BAGE   BWT BGLUC BHBA1C
#>    <int> <chr>   <int>   <dbl> <dbl>  <dbl>  <dbl> <dbl> <dbl> <dbl>  <dbl>
#>  1     1 hgly2       0     200  866.   64.3   10.1  84.4  74.1  4.65   31.5
#>  2     1 hgly2       0     200  866.   64.3   10.1  84.4  74.1  4.65   31.5
#>  3     1 hgly2       0     200  866.   64.3   10.1  84.4  74.1  4.65   31.5
#>  4     1 hgly2       0     200  866.   64.3   10.1  84.4  74.1  4.65   31.5
#>  5     1 hgly2       0     200  866.   64.3   10.1  84.4  74.1  4.65   31.5
#>  6     1 hgly2       0     200  866.   64.3   10.1  84.4  74.1  4.65   31.5
#>  7     1 hgly2       0     200  866.   64.3   10.1  84.4  74.1  4.65   31.5
#>  8     1 hgly2       0     200  866.   64.3   10.1  84.4  74.1  4.65   31.5
#>  9     1 hgly2       0     200  866.   64.3   10.1  84.4  74.1  4.65   31.5
#> 10     1 hgly2       0     200  866.   64.3   10.1  84.4  74.1  4.65   31.5
#> # ℹ 249,990 more rows
#> # ℹ 13 more variables: RACE <chr>, VISC <fct>, AUCss_1000 <dbl>, BAGE_10 <dbl>,
#> #   BWT_10 <dbl>, BHBA1C_5 <dbl>, .row <int>, .chain <int>, .iteration <int>,
#> #   .draw <int>, .epred <dbl>, .linpred <dbl>, .prediction <int>
ersim_med_qi
#> # A tibble: 500 × 27
#>       ID AETYPE AEFLAG Dose_mg AUCss Cmaxss Cminss  BAGE   BWT BGLUC BHBA1C
#>    <int> <chr>   <int>   <dbl> <dbl>  <dbl>  <dbl> <dbl> <dbl> <dbl>  <dbl>
#>  1     1 hgly2       0     200  866.   64.3   10.1  84.4  74.1  4.65   31.5
#>  2     2 hgly2       0     200 1707.  166.    27.3  59.1  88.2  7.24   41.9
#>  3     3 hgly2       0     200  746.   68.2   15.8  64.3  88.0  5.73   47.7
#>  4     4 hgly2       0     200 1984.  287.    37.2  65.5 114.   5.26   23.4
#>  5     5 hgly2       0     200 2045.  275.    53.1  67.5  64.6  4.49   43.1
#>  6     6 hgly2       0     200  632.   47.3   12.0  67.0  73.0  6.41   43.6
#>  7     7 hgly2       0     200 2274.  136.    33.6  73.7  63.6  7.22   35.9
#>  8     8 hgly2       0     200 1347.  130.    21.7  59.9  99.7  5.34   36.2
#>  9     9 hgly2       0     200 1101.   60.7   11.2  65.8  82.3  5.47   36.0
#> 10    10 hgly2       0     200 1822.  179.    49.3  65.5  62.3  5.70   33.7
#> # ℹ 490 more rows
#> # ℹ 16 more variables: RACE <chr>, VISC <fct>, AUCss_1000 <dbl>, BAGE_10 <dbl>,
#> #   BWT_10 <dbl>, BHBA1C_5 <dbl>, .row <int>, .epred <dbl>, .epred.lower <dbl>,
#> #   .epred.upper <dbl>, .linpred <dbl>, .linpred.lower <dbl>,
#> #   .linpred.upper <dbl>, .width <dbl>, .point <chr>, .interval <chr>
…
